Inputs,,,,Output (noiseless),ouput(noise)
x_0,X_1,x_2,X_3,y_NOISELESS,Y_NOISE
1,10,100,0.01,100.0049833749,109.6721317678
2,20,200,0.02,197.0397346614,173.394966502
3,30,300,0.03,292.1336600646,204.4935620452
4,40,400,0.04,385.3157757,398.1596348
5,50,500,0.05,476.6147122504,573.5263704079
6,60,600,0.06,566.0587201505,647.1938033721
7,70,700,0.07,653.6756739342,518.5827013211
8,80,800,0.08,739.4930771093,981.0608156317
9,90,900,0.09,823.5380667441,1062.3641060999
10,100,1000,0.1,905.837418036,625.0278184448
11,110,1100,0.11,986.4175488262,1058.7548357401
12,120,1200,0.12,1065.3045240606,777.6723025642
13,130,1300,0.13,1142.5240601967,1336.7531504302
14,140,1400,0.14,1218.1015295583,1193.7394989672
15,150,1500,0.15,1292.0619646376,1046.5701913565
16,160,1600,0.16,1364.4300623459,1546.3540706587
17,170,1700,0.17,1435.2301882139,1660.0829177007
18,180,1800,0.18,1504.4863805403,1043.1105571746
19,190,1900,0.19,1572.2223544924,1771.3705193948
20,200,2000,0.2,1638.461506156,2102.6922662335
21,210,2100,0.21,1703.2269165374,1243.3556490723
22,220,2200,0.22,1766.5413555175,2290.6152909876
23,230,2300,0.23,1828.4272857577,1328.6571609839
24,240,2400,0.24,1888.9068665597,2480.7643514151
25,250,2500,0.25,1948.0019576785,1960.9886373964
26,260,2600,0.26,2005.7341230893,2446.9956301689
27,270,2700,0.27,2062.1246347095,2440.1808177396
28,280,2800,0.28,2117.194476076,2547.6906862115
29,290,2900,0.29,2170.9643459778,1845.3196940812
30,300,3000,0.3,2223.4546620452,2156.7510221838
31,310,3100,0.31,2274.6855642953,1819.7484514362
32,320,3200,0.32,2324.6769186358,2115.4559959586
33,330,3300,0.33,2373.4483203254,3006.3678724121
34,340,3400,0.34,2421.0190973929,2235.4076332594
35,350,3500,0.35,2467.4083140155,1949.2525680722
36,360,3600,0.36,2512.6347738557,2705.270106518
37,370,3700,0.37,2556.7170233582,2301.0453210224
38,380,3800,0.38,2599.673355007,1993.0829055053
39,390,3900,0.39,2641.5218105428,2659.1319559465
40,400,4000,0.4,2682.2801841426,2101.1194775783
41,410,4100,0.41,2721.9660255589,2331.8175618955
42,420,4200,0.42,2760.5966432232,2015.235549553
43,430,4300,0.43,2798.1891073103,2117.2964245314
44,440,4400,0.44,2834.7602527658,2447.3430182212
45,450,4500,0.45,2870.326682298,3128.6560837048
46,460,4600,0.46,2904.9047693319,3108.2481031851
47,470,4700,0.47,2938.5106609287,2096.1376047958
48,480,4800,0.48,2971.1602806695,3476.2575283833
49,490,4900,0.49,3002.8693315036,3503.3475534209
50,500,5000,0.5,3033.6532985632,3104.4385421963
51,510,5100,0.51,3063.5274519426,2777.5982230946
52,520,5200,0.52,3092.506849445,3783.1667124877
53,530,5300,0.53,3120.6063392953,4140.0044101317
54,540,5400,0.54,3147.8405628195,4060.7143260372
55,550,5500,0.55,3174.2239570927,3004.9320127144
56,560,5600,0.56,3199.7707575534,3541.0796383591
57,570,5700,0.57,3224.4950005874,2353.8813504288
58,580,5800,0.58,3248.4105260793,3335.0348067748
59,590,5900,0.59,3271.5309799336,2791.70643621
60,600,6000,0.6,3293.8698165642,2810.7689101348
61,610,6100,0.61,3315.4403013545,3834.8592819
62,620,6200,0.62,3336.255513087,3747.7270263677
63,630,6300,0.63,3356.3283463435,2595.5605878389
64,640,6400,0.64,3375.6715138755,4275.8505842423
65,650,6500,0.65,3394.2975489466,3077.4964443783
66,660,6600,0.66,3412.2188076452,2445.4234788124
67,670,6700,0.67,3429.4474711698,4183.9259148272
68,680,6800,0.68,3445.995548086,3285.1824225087
69,690,6900,0.69,3461.8748765558,2504.089494042
70,700,7000,0.7,3477.0971265399,2607.8228449049
71,710,7100,0.71,3491.6738019729,2863.1725176177
72,720,7200,0.72,3505.6162429118,3762.694767392
73,730,7300,0.73,3518.9356276585,4281.3716803178
74,740,7400,0.74,3531.6429748557,4014.3008480859
75,750,7500,0.75,3543.7491455576,3531.9366484058
76,760,7600,0.76,3555.2648452753,2500.5362745103
77,770,7700,0.77,3566.2006259965,4101.1307198959
78,780,7800,0.78,3576.5668881807,3969.9892458806
79,790,7900,0.79,3586.3738827306,4423.1944553678
80,800,8000,0.8,3595.6317129378,3979.1657623178
81,810,8100,0.81,3604.3503364058,3303.987808372
82,820,8200,0.82,3612.5395669492,2757.5718694379
83,830,8300,0.83,3620.2090764688,4428.7224368801
84,840,8400,0.84,3627.3683968043,4800.217511771
85,850,8500,0.85,3634.0269215642,4627.3276134584
86,860,8600,0.86,3640.1939079326,2584.5376746322
87,870,8700,0.87,3645.8784784545,4788.2537350369
88,880,8800,0.88,3651.0896227979,4198.7530662176
89,890,8900,0.89,3655.8361994959,4594.1674906998
90,900,9000,0.9,3660.1269376654,3696.7282070421
91,910,9100,0.91,3663.9704387061,4067.0071869638
92,920,9200,0.92,3667.3751779775,3887.4176886562
93,930,9300,0.93,3670.3495064559,4196.4329357146
94,940,9400,0.94,3672.9016523701,4676.8281040179
95,950,9500,0.95,3675.0397228178,3638.2893255896
96,960,9600,0.96,3676.7717053611,3002.6968927115
97,970,9700,0.97,3678.105469603,3935.5728524752
98,980,9800,0.98,3679.0487687437,3286.6169000777
